%YAML 1.1
%TAG !u! tag:unity3d.com,2011:
--- !u!1045 &1
EditorBuildSettings:
  m_ObjectHideFlags: 0
  serializedVersion: 2
  m_Scenes:
  - enabled: 1
    path: Assets/Scenes/Main Menu.unity
    guid: fc7561ba1bcd9854196b805d9d36b36e
  - enabled: 1
    path: Assets/Scenes/Game Scene.unity
    guid: 2cda990e2423bbf4892e6590ba056729
  - enabled: 1
    path: Assets/Scenes/End Scene.unity
    guid: 023243ae35f88804eab4a6ba04d15d07
  m_configObjects: {}
